<?xml version="1.0" encoding="UTF-8"?>
<!DOCTYPE suite SYSTEM "http://testng.org/testng-1.0.dtd">
<suite verbose="0" name="Failed suite [Suite]">
  <test name="Test(failed)">
    <classes>
      <class name="Pageobject.happypath">
        <methods>
          <include name="Smoketest" invocation-numbers="0"/>
        </methods>
      </class> <!-- Pageobject.happypath -->
    </classes>
  </test> <!-- Test(failed) -->
</suite> <!-- Failed suite [Suite] -->
